D:\Java\eclipse-workspace\inlMaven\src\main\java\blackjack\Deck.java
D:\Java\eclipse-workspace\inlMaven\src\main\java\blackjack\MainDeck.java
D:\Java\eclipse-workspace\inlMaven\src\main\java\blackjack\Suit.java
D:\Java\eclipse-workspace\inlMaven\src\main\java\blackjack\Blackjack.java
D:\Java\eclipse-workspace\inlMaven\src\main\java\blackjack\Card.java
